2024 Early Look Forecast
…
cpue <- read_csv("../../data/data/cpue/cpue.csv")

Rows: 63 Columns: 5
── Column specification ────────────────────────────────────────────────────────
Delimiter: ","
chr (1): source
dbl (4): year, fifdj, qdj, mdj

ℹ Use `spec()` to retrieve the full column specification for this data.
ℹ Specify the column types or set `show_col_types = FALSE` to quiet this message.

combined <- full_join(cpue, env, by = "year")
combined

# A tibble: 64 × 8
    year fifdj   qdj   mdj source amatc   pice msstc
   <dbl> <dbl> <dbl> <dbl> <chr>  <dbl>  <dbl> <dbl>
 1  1961    11    12    15 <NA>    -7.8 NA       0.9
 2  1962    14    19    22 <NA>    -7.6 NA       0.2
 3  1963    12    13    19 <NA>    -7.9 NA       1.5
 4  1964    22    23    25 <NA>   -10.3 NA      -2.9
 5  1965    16    16    19 <NA>    -6.4 NA       0.6
 6  1966    16    18    22 <NA>    -9.3 NA      -3.4
 7  1967     7     7    13 <NA>    -5   NA       2.4
 8  1968    12    14    21 <NA>    -9.8 NA      -0.4
 9  1969     9    11    13 <NA>    -5.7 NA       2.2
10  1970    16    18    20 <NA>    -9.4  0.672  -0.5
# ℹ 54 more rows
…
